"","Recipient","Year","disaster_deaths","disaster_affected","conflict_deaths","OECD_disburse","FTSPaidDistribution"
"1","Afghanistan",2001,0,0,5553,18.5004966,135.381914
"2","Afghanistan",2002,0,0,1157,75.73916347,831.921301
"3","Afghanistan",2003,0,0,944,87.3910873,262.082052
"4","Afghanistan",2004,0,5540,817,74.7903179,28.218035
"5","Afghanistan",2005,0,0,1711,18.730496166,7.52048
"6","Afghanistan",2006,0,0,4982,115.23796206,39.093717
"7","Afghanistan",2007,296,0,7020,187.435780234,35.48431
"8","Afghanistan",2008,0,452964,5660,622.579740247,338.269085
"9","Afghanistan",2009,101,0,6499,445.70507593,244.571147
"10","Afghanistan",2010,350,0,7151,479.789159702,344.01299
"11","Afghanistan",2011,0,1762815,7563,491.776417962,431.878966
"12","Afghanistan",2012,0,0,7823,337.433583922,318.335731
"13","Afghanistan",2013,155,0,8131,469.93960406,296.727517
"14","Afghanistan",2014,575,0,12549,308.215656486,208.235985
"15","Afghanistan",2015,0,129777,17987,434.568336661,198.129787
"16","Afghanistan",2016,84,0,18707,421.701416059,287.810948
"17","Afghanistan",2017,226,0,19776,350.66091226,238.996436
"18","Afghanistan",2018,0,0,26889,377.50177065,163.27558
"19","Albania",2002,0,192110,0,9.6219804,1.136374
"20","Albania",2009,0,6750,0,0.978353932,0.053283
"21","Albania",2010,0,14000,0,3.87526519,0.159454
"22","Albania",2012,5,230000,0,5.067357581,0.16706
"23","Albania",2017,7,0,0,6.16025563,0.113849
"24","Albania",2018,0,800,0,7.11421352,0.086754
"25","Algeria",2001,921,45423,674,1.99487256,6.565426
"26","Algeria",2002,48,0,1058,3.57478995,4.402237
"27","Algeria",2003,2369,0,714,9.785573417,2.18403
"28","Algeria",2004,0,27880,500,1.8745654,0.487574
"29","Algeria",2005,22,1825,232,35.189494423,0.518806
"30","Algeria",2006,5,60319,292,11.624902848,1.7798
"31","Algeria",2007,90,0,495,20.70542232,0.538873
"32","Algeria",2008,93,59050,345,22.152571838,0.45503
"33","Algeria",2009,48,0,541,20.718670643,0.694434
"34","Algeria",2010,0,0,252,17.179280586,2.670703
"35","Algeria",2011,10,793,276,23.23592882,1.320829
"36","Algeria",2012,69,101,264,26.7276442,4.238411
"37","Algeria",2013,0,0,222,31.138283461,4.57265
"38","Algeria",2014,6,420,111,20.79651507,4.9
"39","Algeria",2015,0,0,110,25.17803444,2.370586
"40","Algeria",2016,0,0,89,22.06286841,0.941836
"41","Algeria",2017,0,125000,77,32.962646882,0.494729
"42","Algeria",2018,6,200,35,22.534910154,4.084487
"43","Angola",2000,77,0,1206,0.65086798,69.061458
"44","Angola",2001,154,0,2154,7.115403,91.33782
"45","Angola",2002,8,0,579,12.602772063,190.593897
"46","Angola",2003,15,825,84,34.902475,166.049577
"47","Angola",2004,0,0,38,37.73206441,113.284757
"48","Angola",2005,0,10000,15,19.20501713,6.344149
"49","Angola",2006,0,0,3,31.84377618,5.465127
"50","Angola",2007,0,64343,26,13.322675416,0.420168
"51","Angola",2008,370,98837,4,6.352439969,0.07768
"52","Angola",2009,0,251003,25,1.732169567,1.224713
"53","Angola",2011,0,0,1,9.3818349,0.394218
"54","Angola",2012,0,1833900,0,6.4859029,0.1
"55","Angola",2013,9,1000,2,11.7879543,7.4
"56","Angola",2015,459,9599,1,7.3948316,0.7
"57","Angola",2016,113,0,26,5.749501,3.031645
"58","Angola",2017,0,1450250,26,15.33386545,1.305238
"59","Angola",2018,10,3139,24,16.3929955,2.080093
"60","Antigua and Barbuda",2017,1,1800,0,7.40451496,0.5
"61","Argentina",2006,0,4500,0,0.21138556,0.016224
"62","Argentina",2007,19,0,0,0.8645073,0.016777
"63","Argentina",2010,42,0,0,0.6483475,0.100665
"64","Argentina",2011,0,3000,0,4.20962173,0.055016
"65","Armenia",2006,0,0,2,2.4146823,4
"66","Armenia",2012,0,0,9,2.85657686,0.7
"67","Armenia",2013,0,76000,1,2.28636133,0.010753
"68","Armenia",2016,0,750,4,5.225876806,0.893855
"69","Azerbaijan",2003,0,31500,0,0.64475773,2.9987
"70","Azerbaijan",2004,0,0,8,1.76541463,0.2191
"71","Azerbaijan",2007,0,0,12,4.657267,2
"72","Azerbaijan",2008,0,0,30,2.76267217,0.5
"73","Bangladesh",2000,0,0,105,18.72917,5.376565
"74","Bangladesh",2001,0,730750,62,0.80481228,0.235093
"75","Bangladesh",2002,928,0,6,15.72649223,0.7607
"76","Bangladesh",2003,529,0,8,0.54267584,0.213005
"77","Bangladesh",2004,0,0,51,25.43506441,51.044353
"78","Bangladesh",2005,0,0,80,17.977241027,4.108414
"79","Bangladesh",2006,0,229924,96,15.510856507,1.8
"80","Bangladesh",2007,5721,23215116,18,65.56054177,117.909982
"81","Bangladesh",2008,68,636090,13,97.600947728,1.164711
"82","Bangladesh",2009,0,0,10,96.600167316,1.574954
"83","Bangladesh",2010,0,887390,5,82.252421201,6.224133
"84","Bangladesh",2011,102,0,0,83.194894648,14.796429
"85","Bangladesh",2012,0,5658154,2,92.050296036,3.929529
"86","Bangladesh",2013,50,1532207,54,60.85788115,5.391817
"87","Bangladesh",2014,0,3205709,2,100.06403331,6.694742
"88","Bangladesh",2015,159,0,10,110.979001464,2.76523
"89","Bangladesh",2016,198,0,73,119.386873362,7.853455
"90","Bangladesh",2017,0,0,48,265.844332182,288.385143
"91","Bangladesh",2018,102,0,28,426.626860525,455.987923
"92","Belize",2000,14,62570,0,0.0553879,1.183447
"93","Benin",2005,4,206,0,3.484985,3.38621
"94","Benin",2007,10,10884,0,0.61626909,0.348214
"95","Benin",2008,48,159223,0,0.3840294,0.224627
"96","Benin",2009,0,120457,0,2.182815224,1
"97","Benin",2010,71,832037,0,8.076890451,0.990864
"98","Benin",2011,0,5840,0,7.56442479,2.543485
"99","Benin",2013,0,35980,0,10.913777287,2.035958
"100","Benin",2016,13,678,0,28.11936401,0.234521
"101","Bhutan",2009,23,0,0,1.2184746,0.143403
"102","Bolivia",2003,143,58530,0,0.89334311,0.114069
"103","Bolivia",2004,0,55000,0,1.9731004,0.866001
"104","Bolivia",2006,0,126600,0,4.233361077,2.013495
"105","Bolivia",2008,0,41357,0,21.309557409,7.328717
"106","Bolivia",2009,0,63000,0,13.135327723,1.722518
"107","Bolivia",2011,0,92825,0,10.35554992,1.598837
"108","Bolivia",2013,0,841869,0,8.38223778,0.135685
"109","Bolivia",2014,0,340590,0,3.54213313,0.114138
"110","Bolivia",2015,0,4000,0,307.284648365,1.219512
"111","Bosnia and Herzegovina",2004,0,278000,0,29.39111383,0.434692
"112","Bosnia and Herzegovina",2009,0,13730,0,3.455771951,0.15437
"113","Bosnia and Herzegovina",2012,4,10347,0,0.5450046,0.08908
"114","Botswana",2008,2,15,0,0.192298,0.103493
"115","Brazil",2001,0,1014446,74,0.0116425,0.03
"116","Brazil",2002,0,0,61,0.745055433,0.132042
"117","Brazil",2005,0,0,54,0.3754857,0.04547
"118","Brazil",2006,20,0,22,1.9749977,0.223404
"119","Brazil",2007,0,1211638,40,0.485713,0.757216
"120","Brazil",2008,326,1916692,20,3.51725851,0.257498
"121","Brazil",2010,0,0,4,1.447943479,0.460206
"122","Brazil",2011,978,1215600,31,65.2915101,0.033697
"123","Brazil",2012,0,4299000,11,76.59821703,0.358227
"124","Brazil",2013,121,261274,4,2.22308872,0.33206
"125","Brazil",2014,0,27618152,1,4.712349055,0.251425
"126","Brazil",2017,168,104450,2801,8.32269042,0.007954
"127","Brazil",2018,22,1550,2349,7.535961812,3.596768
"128","Burkina Faso",2003,0,19266,0,1.914602814,0.166764
"129","Burkina Faso",2006,0,33012,0,2.9887424,0.531128
"130","Burkina Faso",2007,1542,141808,0,7.73476654,5.081564
"131","Burkina Faso",2008,0,57870,0,19.78465506,9.095963
"132","Burkina Faso",2009,0,154392,0,22.998981793,8.230631
"133","Burkina Faso",2010,857,139322,0,31.147152095,10.631219
"134","Burkina Faso",2011,0,2850000,0,19.79284799,6.36956
"135","Burkina Faso",2012,18,21000,0,59.461685579,81.216133
"136","Burkina Faso",2013,2,11396,0,66.358439267,47.802264
"137","Burkina Faso",2014,0,4e+06,0,34.937084141,23.165123
"138","Burkina Faso",2015,8,28925,0,44.597880804,12.816852
"139","Burkina Faso",2016,15,34893,26,35.351031423,35.885803
"140","Burkina Faso",2017,20,9911,54,21.10317368,23.941824
"141","Burkina Faso",2018,0,0,195,68.36431343,31.116581
"142","Burundi",2000,0,731191,2071,2.86486026,10.770668
"143","Burundi",2001,0,0,1253,4.9489194,48.637507
"144","Burundi",2002,0,10163,1576,26.354152,21.342853
"145","Burundi",2003,0,0,1245,12.390115069,29.433396
"146","Burundi",2004,0,25620,679,33.431915157,50.930666
"147","Burundi",2005,0,2155000,378,49.33803772,41.127536
"148","Burundi",2006,0,16310,185,74.2093842,49.805265
"149","Burundi",2007,5,25701,79,73.426373302,80.292478
"150","Burundi",2008,0,85775,220,68.9842534,7.401057
"151","Burundi",2009,0,188000,0,67.417374095,2.321176
"152","Burundi",2011,0,1335,0,27.658923283,3.994548
"153","Burundi",2012,0,0,9,22.990557447,0.533279
"154","Burundi",2013,0,0,9,42.60895457,5.008725
"155","Burundi",2014,96,12682,50,19.405199634,2.301894
"156","Burundi",2015,63,7049,220,33.14204456,4.555442
"157","Burundi",2016,1,193,14,403.28649258,44.142183
"158","Burundi",2017,6,810,60,75.21154653,29.699517
"159","Burundi",2018,0,27532,94,65.64638062,40.696419
"160","Cabo Verde",2009,9,20297,0,1.5880577,0.165558
"161","Cabo Verde",2014,0,2500,0,2.696135397,0.429456
"162","Cambodia",2000,347,3448053,4,0.102041,9.928429
"163","Cambodia",2001,0,1969182,0,2.065344,3.437051
"164","Cambodia",2002,0,2120000,0,4.42579111,0.118316
"165","Cambodia",2003,0,0,1,5.2435835,0.757615
"166","Cambodia",2006,0,42368,0,6.957183992,3.480032
"167","Cambodia",2007,184,36000,2,8.178791106,1.142254
"168","Cambodia",2008,0,0,2,6.82410204,0.508155
"169","Cambodia",2009,19,0,2,10.013850532,0.593657
"170","Cambodia",2010,8,0,0,14.446232289,3.017536
"171","Cambodia",2011,247,1640023,10,11.57711841,12.303343
"172","Cambodia",2012,14,71500,1,18.81760884,3.495904
"173","Cambodia",2013,200,1500000,0,3.575648614,3.521071
"174","Cambodia",2014,45,530450,0,22.6551301,1.296415
"175","Cambodia",2016,0,2500000,0,3.09567255,2.141119
"176","Cambodia",2018,0,5817,0,3.42363512,0.185012
"177","Cameroon",2008,9,25000,0,7.76368506,1.310671
"178","Cameroon",2010,528,10964,0,5.879098754,0.20234
"179","Cameroon",2011,639,16706,0,13.303568729,0.458905
"180","Cameroon",2012,0,63980,0,24.03141215,11.553055
"181","Cameroon",2013,0,805,1,26.1555542,16.941437
"182","Cameroon",2014,0,252056,1047,31.53435451,36.56406
"183","Cameroon",2015,0,30858,1263,90.10603021,86.146683
"184","Cameroon",2016,0,0,491,65.241685282,141.738272
"185","Cameroon",2017,3,12890,410,78.056896996,70.019504
"186","Cameroon",2018,57,942,984,100.19462659,65.640767
"187","Central African Republic",2003,0,619,19,1.547848,3.532483
"188","Central African Republic",2004,3,12698,23,1.629147,0.953138
"189","Central African Republic",2005,1,23805,8,4.3786403,3.4639
"190","Central African Republic",2006,0,0,190,6.52730235,10.812904
"191","Central African Republic",2007,1,7812,143,30.72561453,43.793378
"192","Central African Republic",2008,0,795,8,45.488704978,60.916278
"193","Central African Republic",2009,0,23972,244,34.50268845,34.170301
"194","Central African Republic",2010,3,1585,148,35.127147874,39.536307
"195","Central African Republic",2011,0,4938,195,53.34798516,37.657578
"196","Central African Republic",2012,0,3893,132,35.93488413,46.277507
"197","Central African Republic",2013,0,41800,3396,94.3652546,54.530364
"198","Central African Republic",2014,0,0,3338,201.990739653,209.85676
"199","Central African Republic",2015,1,1116,715,216.54478155,175.120327
"200","Central African Republic",2016,21,266,688,231.014459453,116.768678
"201","Central African Republic",2017,0,7190,1795,193.20466637,124.305667
"202","Central African Republic",2018,1,119,585,211.053777017,134.872809
"203","Chad",2004,0,0,78,22.1334788,126.093983
"204","Chad",2005,115,6000,267,37.994148299,113.747961
"205","Chad",2006,72,0,1956,50.68732361,95.129291
"206","Chad",2007,29,173145,431,101.64728549,208.950389
"207","Chad",2008,0,16205,994,144.740282829,156.28641
"208","Chad",2009,0,2413786,135,140.638669512,271.733107
"209","Chad",2010,263,149898,4,115.76937629,249.182847
"210","Chad",2011,557,18123,0,130.86023797,190.760535
"211","Chad",2012,0,2215339,0,162.031250573,203.410434
"212","Chad",2014,0,0,16,97.27207028,159.220255
"213","Chad",2015,0,0,397,151.45523263,166.803355
"214","Chad",2016,0,0,26,145.449301499,200.693315
"215","Chad",2017,0,1887452,91,128.75314589,158.802919
"216","Chad",2018,90,4227,168,206.2512864,191.362131
"217","Chile",2005,0,29105,0,0.01,0.02
"218","Chile",2007,18,0,0,0.0164271,0.090461
"219","Chile",2010,0,2671706,0,31.636508845,10.933022
"220","Chile",2011,0,55932,0,4.212702169,0.09559
"221","Chile",2014,0,536942,0,1.71977065,0.141196
"222","Chile",2017,42,14989,0,8.22236112,5.1
"223","China (People's Republic of)",2005,0,83943274,12,30.6204908,0.728658
"224","China (People's Republic of)",2008,0,0,87,86.086453156,145.494951
"225","China (People's Republic of)",2009,0,0,189,9.683959542,2.238218
"226","China (People's Republic of)",2015,0,0,5,18.427331437,0.1653
"227","Colombia",2000,115,79430,2028,0.3907329,0.008921
"228","Colombia",2003,115,0,1183,9.262317178,9.199397
"229","Colombia",2004,0,540020,1781,9.27945869,6.346797
"230","Colombia",2005,0,0,1702,8.049798206,10.499249
"231","Colombia",2006,0,238465,588,42.56510434,7.13058
"232","Colombia",2007,0,2674662,362,54.13130906,10.303894
"233","Colombia",2008,0,0,252,53.57879962,7.581536
"234","Colombia",2009,0,31850,419,63.803749909,16.087318
"235","Colombia",2010,0,0,442,195.434875131,31.294337
"236","Colombia",2011,313,1487698,227,174.536284837,12.887813
"237","Colombia",2012,0,104753,227,39.310943595,10.285815
"238","Colombia",2013,0,62967,140,61.678896131,8.811765
"239","Colombia",2014,0,72232,156,125.14838662,21.430639
"240","Colombia",2015,0,0,143,52.36421088,6.239867
"241","Colombia",2016,0,2284,38,63.343566263,7.934787
"242","Colombia",2017,0,0,34,55.861075317,13.925752
"243","Colombia",2018,26,0,149,74.962471862,16.299174
"244","Comoros",2005,0,286282,0,2.15861795,1.521773
"245","Comoros",2009,2,2500,0,0.51462835,0.108903
"246","Comoros",2012,4,65137,0,2.152075598,3.515419
"247","Comoros",2014,0,19511,0,0.17285135,0.05
"248","Congo",2000,24,0,0,1.2903084,3.186641
"249","Congo",2001,19,13,3,1.24787208,6.846973
"250","Congo",2002,0,53015,234,3.7660471,6.398344
"251","Congo",2003,29,2,33,3.98203537,6.15013
"252","Congo",2005,11,2002,15,23.998647185,3.350577
"253","Congo",2006,56,8030,0,3.2019681,4.284735
"254","Congo",2007,0,25000,2,4.33277757,6.106499
"255","Congo",2010,219,524,0,11.918091615,16.645105
"256","Congo",2011,0,10819,1,7.02590003,1.667308
"257","Congo",2012,24,9671,2,7.596121197,3.889841
"258","Congo",2013,16,1071,0,7.82891932,1.251865
"259","Congo",2016,0,0,51,6.208650331,5.817883
"260","Congo",2017,0,0,20,14.6477212,10.574716
"261","Cook Islands",2005,0,608,0,0.110451,0.446865
"262","Costa Rica",2002,0,95040,0,0.686,0.05
"263","Costa Rica",2005,6,4072,0,0.1715137,0.335528
"264","Costa Rica",2007,0,24500,0,0.230391,0.05
"265","Costa Rica",2009,31,128618,0,16.483934406,0.06
"266","Costa Rica",2017,13,11500,0,32.76021314,11.044106
"267","Cuba",2003,0,600,0,2.265780974,0.587084
"268","Cuba",2006,0,1768,0,3.28381997,1.013745
"269","Cuba",2012,14,211101,0,7.36267493,1.908116
"270","Cuba",2013,2,227,0,7.118962591,1.996714
"271","Cuba",2016,0,190000,0,6.13333438,0.001035
"272","Cuba",2017,10,1e+07,0,15.94136871,1.882668
"273","Democratic People's Republic of Korea",2000,46,627180,0,4.74544,151.298335
"274","Democratic People's Republic of Korea",2001,124,187584,0,3.51504,248.690207
"275","Democratic People's Republic of Korea",2002,0,65844,0,49.79237901,113.967489
"276","Democratic People's Republic of Korea",2004,0,199705,0,8.272891,178.557627
"277","Democratic People's Republic of Korea",2005,193,16298,0,28.0384495,5.379716
"278","Democratic People's Republic of Korea",2006,0,94824,0,21.57424701,13.917451
"279","Democratic People's Republic of Korea",2007,0,1172167,0,41.94332765,23.369275
"280","Democratic People's Republic of Korea",2010,0,95785,0,12.39652177,24.975171
"281","Democratic People's Republic of Korea",2011,74,57592,0,53.34836787,45.224385
"282","Democratic People's Republic of Korea",2012,0,3137550,0,22.76483649,28.189387
"283","Democratic People's Republic of Korea",2013,51,848690,0,18.35897722,30.529544
"284","Democratic People's Republic of Korea",2015,0,18003541,0,13.17042132,9.823161
"285","Democratic People's Republic of Korea",2016,552,0,0,17.99630448,9.886338
"286","Democratic Republic of the Congo",2000,26,63,3052,10.5270051,11.513536
"287","Democratic Republic of the Congo",2001,0,0,1341,7.83223416,70.858782
"288","Democratic Republic of the Congo",2002,0,652315,7908,57.33428104,29.058755
"289","Democratic Republic of the Congo",2003,0,44455,3855,20.442118672,97.501035
"290","Democratic Republic of the Congo",2004,706,0,799,48.510074843,100.115486
"291","Democratic Republic of the Congo",2005,115,11766,312,121.49124063,110.598689
"292","Democratic Republic of the Congo",2006,0,91022,389,198.56388927,227.785898
"293","Democratic Republic of the Congo",2007,204,2019,883,282.169600079,271.65485
"294","Democratic Republic of the Congo",2008,36,17865,1739,389.180789252,242.647063
"295","Democratic Republic of the Congo",2009,0,21034,5160,380.936834869,340.464647
"296","Democratic Republic of the Congo",2010,0,78779,806,295.106179981,329.926474
"297","Democratic Republic of the Congo",2011,0,36757,510,366.4624571,181.461873
"298","Democratic Republic of the Congo",2012,609,28161,1808,297.712635236,267.810172
"299","Democratic Republic of the Congo",2013,0,0,2164,422.665652406,302.155441
"300","Democratic Republic of the Congo",2014,214,0,1574,267.925782622,266.371323
"301","Democratic Republic of the Congo",2015,0,0,644,791.5518291,216.50274
"302","Democratic Republic of the Congo",2016,0,15273,2153,333.266344495,226.768108
"303","Democratic Republic of the Congo",2017,322,1532,5943,342.43895794,236.728254
"304","Democratic Republic of the Congo",2018,2371,19240,3029,535.91415428,446.546632
"305","Djibouti",2004,51,1e+05,0,0.1963836,0.059394
"306","Djibouti",2005,0,150000,0,2.80518,1.522748
"307","Djibouti",2008,0,340000,35,10.7090907,5.939083
"308","Djibouti",2010,0,200258,0,11.529328831,1.5
"309","Djibouti",2014,0,0,1,29.74195335,11.112847
"310","Djibouti",2018,2,25000,6,10.2527322,1.512444
"311","Dominica",2011,0,240,0,0.9341493,0.013643
"312","Dominica",2015,30,28594,0,1.8728818,0.10456
"313","Dominica",2017,64,71393,0,8.622100792,8.798338
"314","Dominican Republic",2003,21,77478,0,0.04779457,0.822648
"315","Dominican Republic",2007,175,162763,0,7.73813183,0.444232
"316","Dominican Republic",2008,13,0,0,23.91806008,0.023175
"317","Dominican Republic",2010,0,64521,0,5.58482577,5.619407
"318","Dominican Republic",2014,1,300,0,19.73048671,1.1
"319","Ecuador",2001,0,32300,2,0.411069,0.232463
"320","Ecuador",2003,0,32905,26,0.85995704,0.263
"321","Ecuador",2006,0,357933,0,2.6825039,0.422304
"322","Ecuador",2008,41,289122,25,10.68673875,0.297286
"323","Ecuador",2009,0,119307,0,9.219611159,0.094361
"324","Ecuador",2010,0,13440,0,4.814184455,0.626244
"325","Ecuador",2011,0,3750,0,10.342399383,0.106667
"326","Ecuador",2014,3,18,0,5.03707298,5.242292
"327","Ecuador",2016,0,423466,0,52.32349353,8.289696
"328","Egypt",2006,0,0,2,3.15088542,0.010478
"329","Egypt",2008,98,697,2,0.11132,1.141748
"330","Egypt",2009,0,0,1,1.15506233,4.683877
"331","Egypt",2011,0,0,31,25.75788745,3.870621
"332","Egypt",2012,0,0,75,0.60651182,4.125172
"333","Egypt",2013,0,0,135,9.85994954,35.222771
"334","Egypt",2014,0,0,249,11.888065163,75.643628
"335","Egypt",2015,141,0,991,15.84304167,59.778409
"336","Egypt",2016,26,32572,404,18.203184177,30.303314
"337","Egypt",2017,0,0,904,346.326795846,54.650684
"338","Egypt",2018,0,0,690,35.78230466,21.085753
"339","El Salvador",2001,0,1991550,0,8.3469823,22.027936
"340","El Salvador",2002,0,2999,0,3.51295905,1.397327
"341","El Salvador",2010,17,0,0,25.711681981,1.333207
"342","El Salvador",2011,35,3e+05,0,60.894945961,4.651637
"343","El Salvador",2014,0,712783,0,6.750557538,0.004363
"344","El Salvador",2015,13,0,0,10.508745006,0.305685
"345","Eritrea",2003,0,0,57,19.972559187,89.742997
"346","Eritrea",2004,0,7013,0,13.43779213,68.679462
"347","Eritrea",2008,0,1700000,0,29.479904863,4.503552
"348","Eritrea",2016,0,0,25,5.35388051,2.640644
"349","Ethiopia",2001,0,47666,388,9.2937437,86.794894
"350","Ethiopia",2002,34,0,809,10.332136833,0.818175
"351","Ethiopia",2003,0,12710000,1093,33.213239308,0.35
"352","Ethiopia",2004,0,0,475,35.4391831,1.887531
"353","Ethiopia",2005,0,0,290,40.428802317,21.363281
"354","Ethiopia",2006,0,466994,430,66.255867928,52.708405
"355","Ethiopia",2007,0,247386,500,60.82067501,19.810924
"356","Ethiopia",2008,0,6519574,311,233.20036523,82.646702
"357","Ethiopia",2009,0,6213652,590,271.786488236,531.248139
"358","Ethiopia",2010,0,4887346,152,150.782350214,174.624914
"359","Ethiopia",2011,0,1040200,66,332.074723426,629.627125
"360","Ethiopia",2012,0,0,385,189.437735189,297.151959
"361","Ethiopia",2013,0,51788,88,428.82073616,228.359444
"362","Ethiopia",2014,0,0,39,236.714263816,242.261589
"363","Ethiopia",2015,0,10410600,307,516.911237657,574.332847
"364","Ethiopia",2016,128,493080,529,735.534194244,628.102599
"365","Ethiopia",2017,0,0,475,797.63474885,396.053076
"366","Ethiopia",2018,0,4021,474,609.52328571,293.624021
"367","Fiji",2003,17,30000,0,0.42961687,1.083855
"368","Fiji",2006,0,392,0,0.0403767,0.9
"369","Fiji",2009,14,14401,0,3.17588123,0.043757
"370","Fiji",2010,2,39101,0,4.47629835,0.05
"371","Fiji",2012,17,27945,0,15.27905285,3.208097
"372","Fiji",2015,0,67000,0,3.75081441,0.268377
"373","Fiji",2016,47,545558,0,68.09926237,14.102629
"374","Fiji",2018,0,179200,0,4.90255103,0.731673
"375","Gambia",2005,0,0,8,0.574183345,0.065359
"376","Gambia",2007,0,300,0,0.1366499,0.073879
"377","Gambia",2008,0,700,0,1.180933,0.575775
"378","Gambia",2010,9,38961,0,0.74302216,0.007008
"379","Gambia",2012,0,428000,1,1.52506168,3.180773
"380","Gambia",2013,2,3300,0,3.298035244,0.351144
"381","Gambia",2015,0,63100,0,2.1131252,0.468108
"382","Georgia",2000,0,696000,0,0.1488463,8.575942
"383","Georgia",2002,6,19156,0,3.19511984,1.092104
"384","Georgia",2004,0,0,27,3.7052389,1.659207
"385","Georgia",2005,0,2500,0,18.437625,0.842221
"386","Georgia",2008,0,0,621,76.66475767,56.991422
"387","Georgia",2009,0,7306,0,89.784086183,19.200545
"388","Georgia",2010,0,0,3,40.850660752,0.253701
"389","Georgia",2012,0,106036,0,27.094938701,0.049756
"390","Georgia",2014,0,12000,0,9.267418876,0.374719
"391","Ghana",2001,0,145166,50,0.0214938,0.662885
"392","Ghana",2002,0,2200,36,0.28451477,5
"393","Ghana",2005,40,2248,0,1.350738527,0.258732
"394","Ghana",2007,56,332600,0,6.95897934,3.936076
"395","Ghana",2008,0,58000,55,6.261107806,4.930937
"396","Ghana",2009,40,159545,8,5.723240294,0.503858
"397","Ghana",2011,121,104046,0,1.81194677,1.193716
"398","Ghana",2012,76,5441,0,3.6190027,2.9
"399","Ghana",2013,23,25560,0,3.70213456,1.5
"400","Ghana",2014,249,56469,0,1.51887281,2.38161
"401","Ghana",2015,110,5465,0,10.24067158,11.469557
"402","Ghana",2017,0,1000012,0,1.7268061,0.113849
"403","Ghana",2018,34,1e+05,0,4.3346435,0.019142
"404","Grenada",2004,39,60000,0,1.4642644,1.051845
"405","Guatemala",2002,0,0,2,2.6620332,0.270758
"406","Guatemala",2005,0,0,58,18.369596843,5.652754
"407","Guatemala",2006,6,0,0,27.73305773,4.445448
"408","Guatemala",2007,0,6001,5,16.812437155,0.3837
"409","Guatemala",2008,74,0,41,12.10769997,0.286533
"410","Guatemala",2009,0,2513828,1,4.681239279,0.25436
"411","Guatemala",2011,0,0,27,12.659895371,0.472851
"412","Guatemala",2012,0,1598227,0,7.18977591,0.15
"413","Guatemala",2013,9,2549,0,9.96297654,0.05
"414","Guatemala",2015,0,81459,20,8.01249275,4.142175
"415","Guatemala",2016,0,101,0,18.057777208,3.233348
"416","Guatemala",2018,0,3291359,0,17.587459013,0.104168
"417","Guinea",2001,21,220143,430,1.745796,0.230861
"418","Guinea",2002,23,123,0,12.9945455,12.968138
"419","Guinea",2003,24,43,0,8.841925728,14.798716
"420","Guinea",2004,0,1869,0,7.56677415,9.731751
"421","Guinea",2005,72,1884,3,6.36320001,9.512384
"422","Guinea",2006,0,1498,15,7.28825964,5.713241
"423","Guinea",2007,0,23095,45,12.992860201,2.791189
"424","Guinea",2008,0,4200,0,5.03893183,17.478701
"425","Guinea",2009,2,40000,160,4.07760791,1.731505
"426","Guinea",2010,8,48026,1,5.250160251,11.125764
"427","Guinea",2011,0,20143,25,6.32397206,1.976491
"428","Guinea",2012,105,5523,9,8.03292018,3.566091
"429","Guinea",2013,0,11249,98,14.69539569,1.5
"430","Guinea",2014,2544,3814,0,35.10929056,71.19069
"431","Guinea",2015,16,30120,3,93.83693262,9.287013
"432","Guinea",2017,0,3409,0,14.66376,2.199
"433","Guinea-Bissau",2005,399,25111,0,14.95716772,1.01454
"434","Guinea-Bissau",2006,0,32000,0,1.27154219,2.68475
"435","Guinea-Bissau",2008,0,14754,0,2.168582,0.927662
"436","Guinea-Bissau",2010,2,56792,0,1.425945,0.504496
"437","Guyana",2005,34,274774,0,4.8034553,0.999033
"438","Guyana",2006,0,35000,0,0.3342565,0.23
"439","Haiti",2002,35,38589,0,0.0626127,0.05
"440","Haiti",2003,0,197745,0,1.05041802,0.198
"441","Haiti",2004,5422,353377,231,17.4139635,20.039839
"442","Haiti",2005,0,0,40,71.67960542,6.376234
"443","Haiti",2006,0,39700,0,42.972826653,1.398576
"444","Haiti",2007,163,220042,0,45.35958453,12.720205
"445","Haiti",2008,698,246276,0,140.36958233,79.843174
"446","Haiti",2009,0,12706,0,77.985826503,28.816562
"447","Haiti",2010,229549,0,0,735.716013245,1260.817813
"448","Haiti",2011,39,7482,0,225.637968475,43.372277
"449","Haiti",2012,180,242139,0,98.96312201,27.574371
"450","Haiti",2013,6,33265,0,215.22279697,45.199014
"451","Haiti",2014,0,1069343,0,93.47146306,48.058213
"452","Haiti",2015,181,66969,0,108.03076181,23.260901
"453","Haiti",2018,17,39336,0,75.30876972,26.768879
"454","Honduras",2002,0,0,1,3.2618979,1.635401
"455","Honduras",2003,10,3105,47,2.879066,0.1871
"456","Honduras",2008,0,0,18,10.122084456,2.003362
"457","Honduras",2009,0,106907,0,12.623617401,1.83457
"458","Honduras",2010,211,0,58,8.903565421,0.05
"459","Honduras",2011,33,69798,18,7.83167678,0.2
"460","Honduras",2012,0,125000,18,14.552761996,0.05
"461","Honduras",2014,0,594710,21,17.03531811,1.527059
"462","Honduras",2016,0,450651,10,10.6505536,1.919514
"463","Honduras",2017,21,48140,0,12.78930414,0.742093
"464","India",2000,0,0,3978,4.17556958,9.635875
"465","India",2001,0,0,1716,3.3911541,48.822403
"466","India",2002,0,0,2900,3.13366564,92.895148
"467","India",2003,0,0,2243,2.44374226,0.165954
"468","India",2004,0,0,1767,4.6674582,1.709493
"469","India",2005,0,0,2015,28.57547099,8.389214
"470","India",2006,0,0,2155,48.975965127,0.415163
"471","India",2007,0,0,1720,21.506224972,0.178571
"472","India",2008,0,0,1848,37.642351185,1.291611
"473","India",2009,0,0,1621,24.959488716,0.116822
"474","India",2010,0,0,1641,14.785285637,0.29095
"475","India",2011,1038,0,798,24.846882977,0.430796
"476","India",2012,599,0,800,49.185763875,0.796662
"477","India",2013,7119,0,703,26.923444249,1.50242
"478","India",2014,1072,0,734,104.90161853,0.929485
"479","India",2015,0,0,619,66.927332481,0.393978
"480","India",2016,1129,0,784,111.98324016,0.522679
"481","India",2017,0,0,843,114.562754284,0.063
"482","India",2018,0,0,946,127.568616605,0.041756
"483","Indonesia",2000,0,0,917,2.7303733,3.272286
"484","Indonesia",2001,0,0,834,0.2689708,3.371314
"485","Indonesia",2002,0,0,762,5.295622,35.431556
"486","Indonesia",2003,0,0,1068,3.8047776,28.607044
"487","Indonesia",2004,0,0,1082,5.08487155,15.370699
"488","Indonesia",2005,0,0,242,202.529755131,185.960305
"489","Indonesia",2006,0,0,13,262.130933353,18.19204
"490","Indonesia",2007,0,0,2,163.747120403,15.876523
"491","Indonesia",2008,0,0,6,111.434187715,6.271492
"492","Indonesia",2010,1294,0,0,109.948115819,9.103471
"493","Indonesia",2011,0,0,9,84.740581228,10.543217
"494","Indonesia",2012,0,0,1,48.248397774,3.895952
"495","Indonesia",2013,0,0,20,41.25259506,0.365934
"496","Indonesia",2014,0,0,12,67.63616753,3.134241
"497","Indonesia",2015,0,0,4,52.67140701,3.462933
"498","Indonesia",2017,0,534836,2,30.63038324,0.709206
"499","Indonesia",2018,0,0,32,102.041849988,11.819916
"500","Iran",2001,0,1206534,112,1.8075774,0.806764
"501","Iran",2003,0,298423,2,9.202384348,8.290244
"502","Iran",2004,0,7051,0,29.70722076,6.66166
"503","Iran",2005,0,0,53,9.81927193,1.125992
"504","Iran",2006,0,171294,61,33.122316454,4.613497
"505","Iran",2008,0,0,117,3.334649,0.931743
"506","Iran",2009,0,269,158,11.602968525,0.053667
"507","Iran",2010,0,4785,101,18.99992457,1.465198
"508","Iran",2011,0,0,206,12.23624021,1.77116
"509","Iran",2012,0,68307,17,19.510861743,30.506605
"510","Iran",2013,0,5997,11,12.466468346,1.184626
"511","Iran",2014,0,452580,5,15.40867668,1.455735
"512","Iran",2015,52,0,24,9.60322823,0.804457
"513","Iran",2016,4,2000,69,39.675733775,1.615812
"514","Iran",2017,509,0,58,25.25842804,4.574511
"515","Iran",2018,0,26148,92,31.60028958,1.780885
"516","Iraq",2003,0,0,7999,146.50917747,833.571569
"517","Iraq",2004,0,0,4365,683.016519664,16.102382
"518","Iraq",2005,0,0,3521,290.784240465,9.616679
"519","Iraq",2006,0,59910,4609,259.11684219,13.899632
"520","Iraq",2007,24,4696,4489,137.84223712,182.056917
"521","Iraq",2008,15,1492,2732,176.153591556,164.931792
"522","Iraq",2009,2,3000,1718,114.289417389,167.071267
"523","Iraq",2010,0,0,1851,70.492794502,72.516778
"524","Iraq",2011,6,2001,1394,47.08274837,5.233961
"525","Iraq",2012,4,0,1407,31.550473358,19.546567
"526","Iraq",2013,11,0,4010,140.499500526,153.844057
"527","Iraq",2014,0,0,15123,387.531740528,794.106767
"528","Iraq",2015,0,67217,11251,805.316193471,558.718552
"529","Iraq",2016,0,0,12025,1237.62413575,557.347613
"530","Iraq",2017,10,5969,11400,1002.834235106,479.640041
"531","Iraq",2018,21,25000,1430,1122.86615287,490.533658
"532","Jamaica",2002,0,0,15,0.4418695,0.110117
"533","Jamaica",2004,16,350126,0,3.0084335,1.380314
"534","Jamaica",2005,6,10396,0,1.47685962,0.037677
"535","Jamaica",2006,4,5280,0,9.1516431,8.78
"536","Jamaica",2007,5,0,0,0.68905411,0.055308
"537","Jamaica",2010,15,2506,0,1.8324535,0.019904
"538","Jamaica",2017,0,5000,0,11.2591688,0.191571
"539","Jordan",2015,0,0,1,578.220070976,605.523527
"540","Jordan",2016,0,0,37,472.436040695,529.992391
"541","Jordan",2018,34,64,0,475.45435959,315.983773
"542","Kazakhstan",2010,0,29200,0,2.19601231,0.054244
"543","Kazakhstan",2017,0,7000,0,2.79082369,0.165056
"544","Kenya",2000,50,721,254,0.345786,6.587451
"545","Kenya",2001,44,0,192,29.84837,112.609809
"546","Kenya",2002,101,0,32,32.32415966,19.302833
"547","Kenya",2003,0,60300,7,7.78496937,5.020431
"548","Kenya",2004,143,0,20,12.28318562,46.89059
"549","Kenya",2005,106,3537845,215,1.12974864,2.658129
"550","Kenya",2006,395,0,219,62.83099377,28.817997
"551","Kenya",2007,39,42657,200,56.765274438,5.201224
"552","Kenya",2008,0,0,783,143.224469801,82.006485
"553","Kenya",2009,307,146646,170,197.98183703,308.593136
"554","Kenya",2010,0,0,87,129.883116737,212.61351
"555","Kenya",2011,0,3850692,144,274.083399542,333.75414
"556","Kenya",2012,73,280670,309,204.446256063,295.360281
"557","Kenya",2013,0,0,267,363.376264932,294.224957
"558","Kenya",2014,0,1603459,344,163.251027927,158.449955
"559","Kenya",2015,138,245299,389,232.89729846,58.835924
"560","Kenya",2016,0,3011000,130,213.939847041,105.518439
"561","Kenya",2017,0,29421,228,171.2139912,116.76612
"562","Kenya",2018,134,0,163,191.5957136,15.395016
"563","Kiribati",2015,0,1500,0,0.10425755,0.2
"564","Kyrgyzstan",2003,38,211,0,0.2085304,0.05
"565","Kyrgyzstan",2004,49,0,0,0.06851929,0.035851
"566","Kyrgyzstan",2005,3,2050,0,1.0416222,0.328
"567","Kyrgyzstan",2006,0,21125,6,0.56067065,5.690199
"568","Kyrgyzstan",2007,0,845,0,1.16695486,0.581857
"569","Kyrgyzstan",2008,0,4197,0,2.7464398,1.488504
"570","Kyrgyzstan",2009,0,2e+06,0,9.4530154,3.46689
"571","Kyrgyzstan",2010,0,8491,44,41.77018101,46.860799
"572","Kyrgyzstan",2012,0,11050,0,15.392028725,10.013
"573","Kyrgyzstan",2015,0,16780,0,4.54810297,0.347512
"574","Lao People's Democratic Republic",2004,2,0,4,0.649848,0.367647
"575","Lao People's Democratic Republic",2006,0,0,73,3.02846846,1.6
"576","Lao People's Democratic Republic",2008,6,204190,0,4.97704925,2.124259
"577","Lao People's Democratic Republic",2009,26,0,0,9.61804913,8.063471
"578","Lao People's Democratic Republic",2011,48,467000,0,13.84504399,2.484992
"579","Lao People's Democratic Republic",2013,100,610253,0,11.110510241,1.465508
"580","Lao People's Democratic Republic",2014,0,750,0,9.742424859,4.236417
"581","Lao People's Democratic Republic",2018,0,748245,0,12.33290137,1.976625
"582","Lebanon",2005,0,0,3,13.48354456,0.112417
"583","Lebanon",2006,0,0,747,170.90355379,106.873096
"584","Lebanon",2007,1,15,0,108.996910826,47.506409
"585","Lebanon",2008,0,0,38,107.604744639,16.057256
"586","Lebanon",2011,0,0,4,52.00602942,21.060355
"587","Lebanon",2012,0,0,53,60.77962712,91.779004
"588","Lebanon",2013,0,0,176,239.793009395,747.928825
"589","Lebanon",2014,0,0,227,324.733521324,813.88261
"590","Lebanon",2015,0,1001692,200,582.93565081,892.445679
"591","Lebanon",2016,0,0,56,448.360090506,816.77025
"592","Lebanon",2017,0,0,297,447.19542279,784.46413
"593","Lebanon",2018,15,0,2,497.98437713,653.656685
"594","Lesotho",2002,0,5e+05,0,1.0172827,5.255111
"595","Lesotho",2007,0,475000,0,4.72392926,10.734048
"596","Lesotho",2016,0,979000,0,6.8085997,2.482594
"597","Liberia",2002,0,661,2259,2.74884173,4.403413
"598","Liberia",2003,0,19418,3281,17.43279831,17.465997
"599","Liberia",2005,29,674,0,44.99324436,10.019252
"600","Liberia",2007,0,20500,0,85.40719435,45.356308
"601","Liberia",2008,0,340,0,74.216775715,32.58691
"602","Liberia",2009,0,500584,0,39.271491166,13.315056
"603","Liberia",2010,1,15486,0,32.621018226,1.033706
"604","Liberia",2014,4810,10682,0,51.88899956,165.534371
"605","Liberia",2016,0,15431,0,117.514225478,3.242437
"606","Libya",2011,0,0,3914,232.415035577,27.539563
"607","Libya",2012,0,0,378,22.842522244,9.077747
"608","Libya",2013,16,2000,36,7.398973294,0.349086
"609","Libya",2014,0,0,1455,61.49978286,11.87886
"610","Libya",2015,0,0,1594,86.62207531,4.256128
"611","Libya",2016,0,0,2349,83.833670663,48.229617
"612","Libya",2017,0,0,1096,108.59462303,77.485788
"613","Libya",2018,0,0,670,97.335094466,27.89475
"614","Madagascar",2000,0,1337499,0,1.179573,6.186923
"615","Madagascar",2002,0,0,79,0.60032758,0.171919
"616","Madagascar",2003,0,186120,0,1.88151708,1.478736
"617","Madagascar",2004,395,1032429,0,1.24279511,7.404671
"618","Madagascar",2006,4,6516,0,2.17544746,0.648109
"619","Madagascar",2007,91,0,0,13.646473,8.924213
"620","Madagascar",2008,0,1253686,0,21.473168989,5.975049
"621","Madagascar",2009,0,131501,113,13.780278509,10.090981
"622","Madagascar",2011,35,115215,0,11.1995399,0.829923
"623","Madagascar",2012,0,335599,15,25.9872703,2.789337
"624","Madagascar",2013,164,45539,0,15.47802861,6.787
"625","Madagascar",2015,121,206437,0,10.65590756,1.319254
"626","Madagascar",2016,0,1140000,0,51.05161654,10.584167
"627","Madagascar",2017,288,436637,1,60.54170115,26.417594
"628","Madagascar",2018,0,1570605,0,50.882882812,7.008583
"629","Malawi",2001,0,549016,0,1.2606383,0.917951
"630","Malawi",2002,725,0,0,4.1819095,34.795799
"631","Malawi",2003,12,19500,0,11.091984164,7.492434
"632","Malawi",2005,0,5144508,0,9.5744824,20.953365
"633","Malawi",2006,28,16852,0,16.52423706,28.041544
"634","Malawi",2007,0,721965,0,10.575323353,0.700289
"635","Malawi",2008,0,21649,0,7.28356775,4.782117
"636","Malawi",2009,66,32197,0,6.633443503,10.229163
"637","Malawi",2010,0,21290,0,11.48609763,0.945766
"638","Malawi",2012,0,1996735,0,39.424156528,42.163509
"639","Malawi",2013,3,33000,0,85.87030252,0.01
"640","Malawi",2014,11,693,0,23.76732068,0.794579
"641","Malawi",2015,0,7338995,0,77.64389447,5.934979
"642","Malawi",2016,12,2800,0,150.340931139,4.916164
"643","Malawi",2017,0,56371,0,65.21287167,2.565
"644","Malawi",2018,0,9613,0,39.916834701,0.678396
"645","Malaysia",2011,18,20006,0,9.56369932,0.471394
"646","Malaysia",2014,0,2430000,0,15.086412,11.108363
"647","Malaysia",2015,25,3010,0,3.96223234,0.045
"648","Malaysia",2018,0,16900,0,9.09528886,0.361196
"649","Maldives",2004,102,27214,0,0.00041177,1.45253
"650","Maldives",2007,0,1649,0,11.46194,0.1
"651","Mali",2005,0,1002028,12,20.091795507,8.374841
"652","Mali",2006,0,26151,0,11.500667,7.326372
"653","Mali",2007,18,88858,39,2.596726327,4.326579
"654","Mali",2008,0,2500,113,4.81312005,3.802221
"655","Mali",2009,35,20492,127,8.385170963,3.058052
"656","Mali",2010,0,632000,28,19.151647216,2.540151
"657","Mali",2011,0,3516605,19,14.78489153,1.270021
"658","Mali",2012,0,0,359,111.279439663,81.480512
"659","Mali",2013,0,46000,881,205.76164102,158.620756
"660","Mali",2014,6,7,291,145.541747384,154.789383
"661","Mali",2015,5,2000,256,144.335731724,84.13309
"662","Mali",2016,13,9500,182,144.454394349,36.663721
"663","Mali",2017,0,0,605,106.02095089,46.496121
"664","Mali",2018,0,13150,1281,141.489730357,97.659362
"665","Mauritania",2002,25,27500,0,0.7854868,0.366927
"666","Mauritania",2005,0,10085,0,2.190383955,15.739276
"667","Mauritania",2006,0,10619,0,7.4306934,3.093861
"668","Mauritania",2007,3,54120,4,2.29223549,10.561652
"669","Mauritania",2008,0,0,12,7.50366133,20.293356
"670","Mauritania",2009,1,10000,1,7.3770973,3.369045
"671","Mauritania",2010,0,846750,1,5.620770292,0.879217
"672","Mauritania",2011,0,723000,9,8.725669582,3.863173
"673","Mauritania",2012,0,0,1,41.902952404,46.328464
"674","Mauritania",2013,8,6530,0,56.750914054,55.318827
"675","Mauritania",2017,0,3895814,0,32.8922175,15.417911
"676","Mauritania",2018,0,350600,0,50.34755943,29.212451
"677","Mexico",2002,0,0,26,0.47360766,0.350393
"678","Mexico",2005,88,0,204,0.617250993,0.035048
"679","Mexico",2006,0,0,669,0.78373307,0.869495
"680","Mexico",2007,0,0,610,3.685083104,1.620739
"681","Mexico",2008,36,0,1869,1.27302168,0.097708
"682","Mexico",2009,0,0,2263,4.857414818,0.397988
"683","Mexico",2010,182,0,3313,0.236197431,0.051432
"684","Mexico",2011,0,0,2775,0.87821892,0.109504
"685","Mexico",2014,0,0,1646,1.7426933,0.379383
"686","Mexico",2017,0,1460060,1451,5.64795009,0.1
"687","Micronesia",2002,0,1623,0,0.01,0.106566
"688","Moldova",2007,0,210394,0,5.2323064,0.159966
"689","Moldova",2008,3,4000,0,4.57003863,0.276946
"690","Moldova",2010,1,12000,0,1.55718243,0.731608
"691","Mongolia",2000,0,1521000,0,10.0756511,20.460876
"692","Mongolia",2001,16,175000,0,4.8628622,0.067984
"693","Mongolia",2016,0,157000,0,2.85662419,0.184775
"694","Mongolia",2017,17,0,0,4.41006049,1.006322
"695","Montenegro",2010,0,6350,0,2.17529749,0.216866
"696","Montenegro",2012,1,4500,0,3.29052816,0.679124
"697","Morocco",2002,80,15017,0,0.05,0.92805
"698","Morocco",2005,1,0,0,2.5370805,2.443527
"699","Morocco",2008,39,0,0,0.631003062,0.069435
"700","Morocco",2009,29,9520,0,2.15197065,0.916956
"701","Morocco",2010,42,77009,0,1.949082089,0.954768
"702","Morocco",2016,0,750000,0,58.77094859,0.003804
"703","Morocco",2017,0,1650000,0,49.30311013,0.130843
"704","Mozambique",2001,0,1449937,0,3.15789353,15.434476
"705","Mozambique",2002,0,6545,0,14.20096423,0.016285
"706","Mozambique",2003,217,681647,0,8.100076985,2.017799
"707","Mozambique",2004,0,0,1,3.52420659,2.546216
"708","Mozambique",2005,0,1447837,12,5.619099286,6.077536
"709","Mozambique",2006,31,7168,0,6.50157463,2.309811
"710","Mozambique",2008,0,745846,0,28.78826221,13.097997
"711","Mozambique",2009,0,33804,0,28.096783517,12.148517
"712","Mozambique",2010,0,480188,0,12.160977144,0.631239
"713","Mozambique",2012,33,109958,2,12.28068305,3.661617
"714","Mozambique",2013,121,240317,42,39.09392331,1.743793
"715","Mozambique",2014,65,81404,30,11.650349467,3.150541
"716","Mozambique",2015,160,177645,3,34.69392007,1.423404
"717","Mozambique",2016,0,2473300,60,63.706231645,19.019395
"718","Mozambique",2017,8,751901,2,43.22124484,29.842968
"719","Mozambique",2018,28,77450,172,20.7861062,7.915973
"720","Myanmar",2004,307,40700,177,4.999015,0.649762
"721","Myanmar",2005,17,16,447,1.316562,0.364507
"722","Myanmar",2006,59,70106,452,26.94081514,7.513124
"723","Myanmar",2007,0,0,699,34.452818453,25.057458
"724","Myanmar",2008,138366,2420000,101,267.31151462,236.028087
"725","Myanmar",2009,24,1351,220,105.126495379,90.649407
"726","Myanmar",2010,113,405049,185,67.439116246,50.312192
"727","Myanmar",2011,225,57011,808,70.675019302,19.712932
"728","Myanmar",2012,40,86486,971,70.42905719,45.052034
"729","Myanmar",2013,23,0,358,142.44155294,61.19218
"730","Myanmar",2014,0,40000,256,128.66881816,88.069373
"731","Myanmar",2015,213,0,705,162.36668294,72.176824
"732","Myanmar",2016,131,0,183,136.030722656,29.8311
"733","Myanmar",2017,0,199520,2395,165.48409857,59.599991
"734","Myanmar",2018,67,0,122,169.45994915,57.300775
"735","Namibia",2003,2,12000,0,1.56505123,0.171286
"736","Namibia",2006,0,2347,0,1.8037952,0.02359
"737","Namibia",2007,14,15250,0,0.30409066,0.394737
"738","Namibia",2009,92,350000,0,3.10721911,1.014942
"739","Namibia",2010,8,110000,0,0.8807405,0.13089
"740","Namibia",2011,108,5e+05,0,5.73081632,0.416479
"741","Namibia",2013,0,795018,0,5.75850257,1.695567
"742","Namibia",2017,0,2502,0,0.42560277,0.25
"743","Nepal",2000,463,0,365,3.21878412,0.3
"744","Nepal",2002,564,0,4432,5.415658972,1.358311
"745","Nepal",2003,287,0,1732,1.47350195,0.052986
"746","Nepal",2004,185,800015,2456,3.0036732,0.90995
"747","Nepal",2005,0,0,1399,2.40090153,9.869489
"748","Nepal",2006,0,0,566,23.86540454,22.954994
"749","Nepal",2007,214,640706,31,34.01708919,47.940761
"750","Nepal",2008,115,250003,0,37.126533481,77.509141
"751","Nepal",2009,0,0,9,41.737190243,57.233931
"752","Nepal",2010,223,0,0,16.116423468,46.071651
"753","Nepal",2013,195,16823,0,29.76840739,0.582145
"754","Nepal",2014,573,0,0,13.66305025,0.088968
"755","Nepal",2015,9034,5642186,0,224.290543515,112.067911
"756","Nepal",2016,174,0,0,148.281604592,0.584712
"757","Nepal",2017,198,1713634,0,131.423770617,4.325513
"758","Nepal",2018,65,0,0,31.131002006,2.280851
"759","Nicaragua",2002,0,29846,0,17.36332522,1.251925
"760","Nicaragua",2004,0,5969,0,6.21463085,0.440807
"761","Nicaragua",2005,7,13643,0,32.36558778,0.657822
"762","Nicaragua",2007,198,212726,0,32.419554512,8.637222
"763","Nicaragua",2011,17,143018,0,10.470403159,2.367131
"764","Nicaragua",2013,30,15459,0,11.537317699,0.157752
"765","Nicaragua",2016,0,10570,0,7.940832616,0.63511
"766","Nicaragua",2017,22,52915,0,6.995372332,0.764356
"767","Niger",2005,0,3000387,0,36.595893608,41.794739
"768","Niger",2006,66,47256,0,48.739033179,32.876719
"769","Niger",2007,7,57274,98,18.48113915,6.260387
"770","Niger",2008,180,34805,56,24.3329821,21.071352
"771","Niger",2009,0,7983642,0,38.63772389,10.600905
"772","Niger",2010,108,234443,0,126.035712027,166.461287
"773","Niger",2011,0,3043305,0,91.069605944,60.207851
"774","Niger",2012,188,535826,1,153.552962738,228.785965
"775","Niger",2013,0,181029,31,189.078109101,161.662129
"776","Niger",2014,201,167222,5,102.556936317,125.67192
"777","Niger",2015,0,2678535,533,168.45767677,141.897175
"778","Niger",2016,84,126344,299,140.03834022,121.562778
"779","Niger",2017,0,1343203,250,145.94982245,126.921028
"780","Niger",2018,114,134292,179,193.716944514,172.929474
"781","Nigeria",2002,0,0,612,0.8111543,0.547672
"782","Nigeria",2006,0,13000,225,0.511898,5.065519
"783","Nigeria",2007,291,0,153,1.4344469,0.292669
"784","Nigeria",2009,0,0,530,5.922933218,0.284669
"785","Nigeria",2010,1912,1543487,980,9.793027692,1.633832
"786","Nigeria",2011,879,0,1829,19.54366196,9.065228
"787","Nigeria",2012,388,7015896,2016,18.843866067,5.115829
"788","Nigeria",2013,19,81506,3371,22.92575656,8.094789
"789","Nigeria",2014,778,46017,10334,27.88203085,19.438434
"790","Nigeria",2015,150,102528,8960,78.46721678,66.884487
"791","Nigeria",2016,1333,28432,3890,258.998445981,129.850576
"792","Nigeria",2017,0,12204,3565,660.243225777,455.682874
"793","Nigeria",2018,390,1939285,3202,716.47596309,214.968832
"794","Niue",2004,1,702,0,4.3423261,1.001236
"795","North Macedonia",2002,0,1850,0,13.6274624,5.848627
"796","North Macedonia",2003,0,4750,0,2.78633234,0.342527
"797","North Macedonia",2015,0,105030,0,7.37733252,0.637858
"798","North Macedonia",2016,0,33682,0,15.999588309,29.233767
"799","North Macedonia",2017,3,2220,0,3.96836148,0.568389
"800","Pakistan",2000,133,0,1,0.194805,12.85958
"801","Pakistan",2001,0,0,26,10.8981677,0.516841
"802","Pakistan",2002,0,0,54,10.9607332,0.102114
"803","Pakistan",2003,0,0,241,3.77563806,0.561816
"804","Pakistan",2004,0,0,430,1.2670744,0.2876
"805","Pakistan",2005,74204,0,153,66.528176244,192.147123
"806","Pakistan",2006,0,0,427,540.921026974,112.545481
"807","Pakistan",2007,911,0,1366,225.779675369,50.455678
"808","Pakistan",2008,249,0,4620,88.937483494,46.482853
"809","Pakistan",2009,102,75080,7460,371.487997143,519.535835
"810","Pakistan",2010,2186,0,7226,804.966976682,996.655331
"811","Pakistan",2011,511,5401755,3474,866.866475951,393.9201
"812","Pakistan",2012,671,0,3540,319.405935204,153.292775
"813","Pakistan",2013,730,1698756,2902,366.6460337,71.16499
"814","Pakistan",2014,410,0,3614,199.931462901,80.092189
"815","Pakistan",2015,1892,0,2419,206.327362084,255.284086
"816","Pakistan",2016,409,0,1044,195.621918232,187.018074
"817","Pakistan",2017,240,0,924,209.63741024,94.193739
"818","Pakistan",2018,240,0,464,98.22159992,58.334562
"819","Palau",2018,0,124,0,0.5881795,0.070459
"820","Panama",2006,0,7866,0,0.01940088,0.01
"821","Panama",2014,9,116,0,1.0004288,0.737265
"822","Panama",2016,7,12000,0,8.68992044,0.14771
"823","Panama",2017,7,12000,0,13.72747908,1.346315
"824","Papua New Guinea",2002,0,0,7,0.0471209,0.058
"825","Papua New Guinea",2006,0,25999,0,0.0793365,0.87
"826","Papua New Guinea",2007,172,162140,0,1.92358751,0.003
"827","Papua New Guinea",2012,65,0,57,4.078984311,0.05
"828","Papua New Guinea",2013,0,35000,0,3.98147574,0.08547
"829","Papua New Guinea",2015,0,2549199,0,5.73633835,3.837423
"830","Paraguay",2013,0,186400,0,4.36567107,0.12
"831","Paraguay",2014,0,233360,0,1.81012916,0.090844
"832","Peru",2001,0,420558,21,0.77138303,11.579644
"833","Peru",2002,0,119050,13,2.79817091,1.836739
"834","Peru",2003,361,1905350,13,2.11230329,0.171697
"835","Peru",2004,0,0,3,2.0362727,0.250928
"836","Peru",2006,0,0,11,0.920195234,0.061022
"837","Peru",2007,677,1590617,32,40.006750756,9.822111
"838","Peru",2008,40,450012,40,27.602609282,0.433721
"839","Peru",2010,510,170357,29,7.737928943,0.175172
"840","Peru",2011,109,0,15,51.996824143,0.070423
"841","Peru",2014,0,0,14,28.91151605,0.077555
"842","Peru",2017,200,2188505,7,20.515731765,5.01537
"843","Peru",2018,2,9319,0,51.808096572,2.985862
"844","Philippines",2000,0,0,1761,0.1654525,0.651119
"845","Philippines",2001,0,3624958,792,0.5003154,0.404464
"846","Philippines",2003,0,687749,1119,0.702924594,0.26435
"847","Philippines",2004,1950,3263076,470,3.1388241,0.265252
"848","Philippines",2005,39,213057,487,3.43165953,3.806748
"849","Philippines",2006,0,8612817,434,14.748911762,3.965197
"850","Philippines",2007,0,0,483,17.046584273,0.666692
"851","Philippines",2008,0,0,566,32.566633194,1.335495
"852","Philippines",2009,0,13352484,1047,136.574079293,27.408686
"853","Philippines",2010,0,5581507,372,170.587967385,3.980755
"854","Philippines",2011,0,0,414,45.118354252,19.019613
"855","Philippines",2012,0,0,311,115.162823975,30.324934
"856","Philippines",2013,7750,25667133,537,329.55520507,181.339853
"857","Philippines",2014,0,13274658,484,255.465086575,142.482821
"858","Philippines",2015,0,4019201,628,69.951769077,5.36196
"859","Philippines",2016,0,5534812,616,45.117492591,2.21405
"860","Philippines",2017,0,0,1708,48.56226178,21.700865
"861","Philippines",2018,0,11372314,436,41.799398816,4.151558
"862","Rwanda",2004,4,540,16,19.19362043,0.373134
"863","Rwanda",2006,59,2300,0,8.3678959,0.961807
"864","Rwanda",2007,30,4500,0,7.52551124,6.69124
"865","Rwanda",2009,0,0,2,12.354963601,2.847385
"866","Rwanda",2011,14,3608,0,16.83609564,1.513666
"867","Rwanda",2012,5,11160,13,20.91511395,1.9
"868","Rwanda",2013,0,0,4,34.74431851,10.755498
"869","Rwanda",2015,2,3431,0,26.5600633,26.98981
"870","Rwanda",2016,121,0,27,37.88953047,28.457717
"871","Rwanda",2017,0,6553,10,47.17687815,11.801227
"872","Rwanda",2018,76,0,11,25.33123623,1.457796
"873","Samoa",2009,148,5584,0,5.68060789,1.834721
"874","Samoa",2012,12,12703,0,1.1870953,2.14168
"875","Senegal",2002,0,463181,45,0.349923,0.356748
"876","Senegal",2005,0,73022,46,2.35515,0.788
"877","Senegal",2006,0,0,126,2.59978244,1.1375
"878","Senegal",2007,24,8125,0,2.4026727,0.40326
"879","Senegal",2008,1,23600,11,9.30205933,13.128624
"880","Senegal",2009,6,264000,19,5.789459743,16.031614
"881","Senegal",2010,0,102516,19,3.488399016,1.142164
"882","Senegal",2011,0,855220,37,7.501368563,0.236168
"883","Senegal",2012,19,57000,23,44.314958592,8.712032
"884","Senegal",2013,8,163306,8,46.248405797,5.302258
"885","Senegal",2014,0,639703,0,17.8914906,7.526122
"886","Senegal",2016,5,10646,0,17.216089597,0.990241
"887","Senegal",2018,0,0,1,27.224406792,2.273529
"888","Serbia",2002,0,2500,0,20.79205231,3.216205
"889","Serbia",2013,0,3000,0,11.061056613,0.006292
"890","Serbia",2016,0,8655,0,29.012503531,14.51498
"891","Serbia",2017,6,0,0,20.79486785,9.320939
"892","Seychelles",2005,0,5461,0,1.229382,2.990897
"893","Sierra Leone",2000,38,0,856,2.8191378,18.481826
"894","Sierra Leone",2001,12,3,73,12.8400952,52.682989
"895","Sierra Leone",2002,0,0,1,17.61245599,24.64691
"896","Sierra Leone",2003,10,90,0,19.50657036,107.91119
"897","Sierra Leone",2004,66,0,0,6.08090093,19.035743
"898","Sierra Leone",2005,20,15000,0,19.407014723,0.237638
"899","Sierra Leone",2007,0,4500,0,25.934176111,3.000528
"900","Sierra Leone",2008,170,1746,0,13.122187794,9.565539
"901","Sierra Leone",2009,103,1470,0,5.48366134,16.02357
"902","Sierra Leone",2010,0,239,0,7.39437207,1.588905
"903","Sierra Leone",2011,21,0,0,15.74325997,1.778574
"904","Sierra Leone",2012,300,23009,0,17.79477373,2.472873
"905","Sierra Leone",2013,0,2257,0,13.38578549,2.336913
"906","Sierra Leone",2014,3956,14124,0,352.6153369,50.467399
"907","Sierra Leone",2015,10,24303,0,406.73436554,49.160566
"908","Sierra Leone",2017,1102,11916,0,36.13700049,9.18563
"909","Solomon Islands",2003,0,425,0,0.38665839,0.2047
"910","Solomon Islands",2007,52,2384,0,2.89693145,0.3
"911","Solomon Islands",2009,21,7000,0,1.665783668,0.17329
"912","Solomon Islands",2010,0,17733,0,5.311570411,0.009824
"913","Solomon Islands",2013,0,20256,0,7.620411659,0.542281
"914","Solomon Islands",2014,47,52000,0,9.273179462,1.581186
"915","Solomon Islands",2016,0,10982,0,3.07780735,0.338636
"916","Somalia",2001,0,6611,483,4.541919,26.296068
"917","Somalia",2002,0,0,638,6.154142,28.492344
"918","Somalia",2003,0,0,405,1.92932735,34.363522
"919","Somalia",2004,0,306583,670,20.33614351,57.70392
"920","Somalia",2005,0,0,340,62.81525213,59.83944
"921","Somalia",2006,246,0,1204,128.01191719,172.359549
"922","Somalia",2007,1158,45699,1620,179.06619764,218.526751
"923","Somalia",2008,0,3352663,1751,321.412570168,280.538035
"924","Somalia",2009,0,1750,2204,281.064263974,207.370215
"925","Somalia",2010,0,4016200,2722,190.754755641,157.043465
"926","Somalia",2011,0,3002800,2118,581.843868637,584.027188
"927","Somalia",2012,31,32200,2989,300.550195741,422.283039
"928","Somalia",2013,0,247380,1045,476.55915648,361.447277
"929","Somalia",2014,0,625624,1247,285.99152323,323.457366
"930","Somalia",2015,0,0,1250,353.034377419,227.330911
"931","Somalia",2016,506,0,2065,434.058385048,233.934645
"932","Somalia",2017,302,13126,2071,971.86658935,726.763945
"933","Somalia",2018,58,928000,2500,695.74266816,305.360771
"934","South Africa",2002,0,0,2,2.25199339,0.2
"935","South Africa",2004,0,15015174,0,0.0604671,0.186028
"936","South Africa",2008,115,20353,0,1.90529988,0.01
"937","South Africa",2009,33,0,0,1.707208604,0.127043
"938","South Africa",2010,40,6000,1,2.16942549,0.043597
"939","South Africa",2011,46,206644,0,13.87050826,0.622859
"940","South Africa",2012,0,126350,0,12.5178798,0.849137
"941","South Africa",2013,3,2870,0,6.4388281,0.455443
"942","South Africa",2014,33,9187,0,1.97899796,1.724976
"943","South Sudan",2011,0,0,1194,72.55194145,181.708702
"944","South Sudan",2012,47,157000,864,306.46293998,347.654406
"945","South Sudan",2013,0,581003,1802,640.743724729,527.710924
"946","South Sudan",2014,149,6486,2491,643.49839801,1273.21898
"947","South Sudan",2015,47,1818,1136,826.731851172,405.530986
"948","South Sudan",2016,0,0,1211,996.44368264,692.407578
"949","South Sudan",2017,0,0,1233,1123.900154893,271.781373
"950","South Sudan",2018,0,0,1208,746.38926295,672.487652
"951","Sri Lanka",2000,12,775113,2569,1.47665074,0.281526
"952","Sri Lanka",2001,0,1000160,1162,1.072234,3.758651
"953","Sri Lanka",2002,2,5e+05,17,5.5730021,0.076086
"954","Sri Lanka",2003,235,695000,33,12.19658359,7.676557
"955","Sri Lanka",2004,35493,1234306,84,13.53114929,4.1401
"956","Sri Lanka",2005,6,145000,130,164.236762464,122.915543
"957","Sri Lanka",2006,25,333002,2173,94.377827023,20.207851
"958","Sri Lanka",2007,0,406000,2564,131.887276772,68.668554
"959","Sri Lanka",2008,57,826905,8453,164.187730738,76.783185
"960","Sri Lanka",2009,0,415007,10418,164.189332639,134.12213
"961","Sri Lanka",2010,35,770265,0,202.18233658,72.88398
"962","Sri Lanka",2011,0,1355308,2,91.79298598,69.413625
"963","Sri Lanka",2012,0,2316021,0,73.049884122,14.613174
"964","Sri Lanka",2013,117,81300,5,67.0328211,3.226312
"965","Sri Lanka",2015,10,27309,0,22.163255477,0.463029
"966","Sri Lanka",2016,0,1201602,0,114.80431982,4.572831
"967","Sri Lanka",2017,649,1208921,1,38.68461897,2.211355
"968","Sudan",2000,186,2363,3537,2.0806222,95.43955
"969","Sudan",2001,3,97000,3719,5.043951146,149.56944
"970","Sudan",2002,0,0,3227,6.7049117,162.10361
"971","Sudan",2003,47,325234,5010,17.37470949,171.87441
"972","Sudan",2004,0,0,7346,86.38655961,488.151312
"973","Sudan",2005,0,168234,1505,47.463066705,899.00161
"974","Sudan",2006,0,195769,2187,399.120713589,900.689545
"975","Sudan",2007,734,572974,1180,589.152874289,645.699543
"976","Sudan",2008,15,212,1241,691.953215815,1077.433211
"977","Sudan",2009,20,111455,2689,547.363483684,1293.44297
"978","Sudan",2010,36,26362,1790,445.984268192,549.608312
"979","Sudan",2011,0,3200030,2567,504.568655465,551.38619
"980","Sudan",2012,206,135813,1525,318.235756617,302.55426
"981","Sudan",2013,76,500133,1958,943.13365897,531.920566
"982","Sudan",2014,39,266204,1912,198.92142894,293.63437
"983","Sudan",2015,0,0,2552,393.40090319,505.686059
"984","Sudan",2016,190,200636,1983,360.279380552,353.518814
"985","Sudan",2017,682,86409,548,246.01222676,383.72452
"986","Sudan",2018,0,127476,461,362.08241121,222.182539
"987","Suriname",2006,3,25000,0,3.3923539,0.227527
"988","Syrian Arab Republic",2002,80,23,0,0.05192736,0.110724
"989","Syrian Arab Republic",2006,6,0,0,2.4475892,0.148083
"990","Syrian Arab Republic",2008,0,1300000,1,27.16610536,63.856673
"991","Syrian Arab Republic",2011,0,0,4264,45.87284627,15.532805
"992","Syrian Arab Republic",2012,0,0,46115,275.3846879,452.327503
"993","Syrian Arab Republic",2013,0,0,65288,1593.952683681,821.852997
"994","Syrian Arab Republic",2014,0,0,76155,849.278875068,1158.468157
"995","Syrian Arab Republic",2015,13,0,55216,4404.10905455,907.038037
"996","Syrian Arab Republic",2016,0,0,48526,8089.922647858,1115.461006
"997","Syrian Arab Republic",2017,0,0,33230,8943.06714317,285.254446
"998","Syrian Arab Republic",2018,0,0,20109,8552.26277998,658.0148
"999","Tajikistan",2000,0,3006000,46,2.327813,5.230603
"1000","Tajikistan",2001,0,3185,0,3.0100288,57.730773
"1001","Tajikistan",2002,0,5801,0,2.38240442,36.609546
"1002","Tajikistan",2003,0,8192,0,1.46027429,25.517255
"1003","Tajikistan",2004,0,400180,0,3.012455,16.971357
"1004","Tajikistan",2005,0,7065,1,12.7322569,1.79693
"1005","Tajikistan",2006,25,29155,8,16.96633872,6.7231
"1006","Tajikistan",2007,49,0,0,8.690558347,7.479442
"1007","Tajikistan",2008,0,2800000,0,18.819420491,16.310097
"1008","Tajikistan",2009,21,15000,17,9.248246054,29.267141
"1009","Tajikistan",2010,0,16918,98,8.482359891,20.592587
"1010","Tajikistan",2011,0,0,28,9.729673852,9.279105
"1011","Tajikistan",2013,0,2500,3,3.90219431,2.570005
"1012","Tajikistan",2014,0,13223,0,3.82515581,0.266733
"1013","Tajikistan",2016,0,12905,0,21.80974944,12.041601
"1014","Tajikistan",2018,6,5725,4,5.42106983,0.177611
"1015","Tanzania",2000,74,3506,0,1.8635031,4.486478
"1016","Tanzania",2001,0,1565,37,3.4816043,88.987673
"1017","Tanzania",2005,9,16124,0,23.429651833,0.905562
"1018","Tanzania",2007,119,284,3,32.469815752,33.584702
"1019","Tanzania",2011,0,1065976,0,38.023831072,2.02103
"1020","Tanzania",2014,31,40000,0,28.74080646,0.502078
"1021","Tanzania",2015,641,47824,0,57.33886378,17.162408
"1022","Tanzania",2016,0,279876,0,87.167912948,59.962663
"1023","Tanzania",2017,7,0,1,71.13846508,47.974446
"1024","Tanzania",2018,15,15873,1,85.552329071,16.857253
"1025","Thailand",2001,0,470529,25,2.609535,0.025
"1026","Thailand",2002,0,8354131,23,8.824309388,0.173662
"1027","Thailand",2004,8389,583175,310,5.4538824,4.533935
"1028","Thailand",2005,0,0,494,10.659769713,12.472634
"1029","Thailand",2006,0,2557308,541,26.906211599,2.282338
"1030","Thailand",2007,0,0,518,33.903696472,0.617777
"1031","Thailand",2008,0,0,328,26.82804683,0.365528
"1032","Thailand",2009,15,2e+05,258,26.365033148,1.491718
"1033","Thailand",2010,0,15454135,218,21.95784821,0.61767
"1034","Thailand",2011,0,0,277,43.22209634,3.818124
"1035","Thailand",2012,0,12235545,244,26.8924175,0.511945
"1036","Thailand",2013,0,0,249,56.818773252,3.608063
"1037","Thailand",2014,0,0,100,21.748777215,2.536173
"1038","Thailand",2015,0,0,84,66.518053902,0.726869
"1039","Thailand",2016,35,0,69,43.727729698,0.512
"1040","Thailand",2017,0,3819058,50,41.10318354,0.614315
"1041","Thailand",2018,0,0,61,26.84421182,0.386402
"1042","Timor-Leste",2001,1,2508,0,1.646238,0.551225
"1043","Timor-Leste",2003,0,1050,0,1.9306281,0.691025
"1044","Timor-Leste",2005,22,336,0,3.47160879,1.128016
"1045","Timor-Leste",2006,0,8730,0,16.02547411,17.328035
"1046","Timor-Leste",2016,0,120000,0,3.966007251,0.420391
"1047","Togo",2007,41,141331,0,2.59176077,0.701293
"1048","Togo",2008,12,45500,0,5.070820616,2.737408
"1049","Togo",2010,82,111786,0,1.35192822,0.198939
"1050","Togo",2013,7,168,0,1.35575261,1.5
"1051","Togo",2015,24,324,0,2.92202663,0.5
"1052","Tonga",2014,1,4014,0,6.2043175,0.430353
"1053","Tonga",2018,0,87000,0,13.52827919,4.853286
"1054","Tunisia",2009,17,8,0,0.6106168,0.01089
"1055","Tunisia",2018,13,0,7,7.2038307,0.022971
"1056","Turkey",2002,86,0,28,3.40288665,0.2
"1057","Turkey",2003,0,0,106,0.83410647,0.399308
"1058","Turkey",2006,79,0,223,1.743188,0.382986
"1059","Turkey",2007,19,0,460,2.25590571,0.441524
"1060","Turkey",2008,2,300,431,1.9741951,1.040051
"1061","Turkey",2009,62,0,126,20.1241985,0.486929
"1062","Turkey",2010,64,3806,204,5.67243349,0.102498
"1063","Turkey",2011,655,43167,425,119.5808672,9.459903
"1064","Turkey",2012,13,0,747,94.9627405,48.823492
"1065","Turkey",2013,7,0,22,160.169534734,155.958584
"1066","Turkey",2014,0,324,10,116.77596313,324.739145
"1067","Turkey",2015,17,0,1059,237.97828484,313.350839
"1068","Turkey",2016,0,0,1533,841.485958847,258.888707
"1069","Turkey",2017,0,630,449,473.98964539,420.274647
"1070","Turkey",2018,24,100,441,528.4158836,138.884364
"1071","Tuvalu",2015,0,4613,0,0.9447927,0.296446
"1072","Uganda",2000,0,10728,1238,1.1755848,12.518391
"1073","Uganda",2001,0,4175,212,1.17388002,24.43734
"1074","Uganda",2002,0,655960,1316,3.87360612,28.507522
"1075","Uganda",2003,60,2442,1629,11.375658046,114.935503
"1076","Uganda",2004,0,30053,2004,17.910281714,100.610102
"1077","Uganda",2005,0,600726,922,10.63334697,110.944124
"1078","Uganda",2006,0,11382,334,95.56506711,158.284576
"1079","Uganda",2007,165,726982,156,128.324119829,212.303282
"1080","Uganda",2008,0,1130428,32,177.470525427,144.18683
"1081","Uganda",2009,17,544,59,112.245892415,107.244669
"1082","Uganda",2010,0,681985,74,60.118716289,48.168271
"1083","Uganda",2011,50,63122,0,38.26913264,15.942772
"1084","Uganda",2012,0,24412,0,48.891034443,14.107315
"1085","Uganda",2013,41,243942,0,65.30579436,27.069317
"1086","Uganda",2014,0,0,7,52.481493559,113.511095
"1087","Uganda",2016,0,11590,30,121.751797669,29.626699
"1088","Uganda",2017,20,0,0,302.34758152,233.58339
"1089","Uganda",2018,82,0,2,188.375463809,122.557436
"1090","Ukraine",2005,0,67940,0,6.2422639,0.02439
"1091","Ukraine",2008,43,0,0,0.7005334,0.83309
"1092","Ukraine",2009,27,0,0,0.558010854,0.05
"1093","Ukraine",2014,0,0,4423,53.286492241,31.867949
"1094","Ukraine",2015,0,0,1314,274.32527257,103.871463
"1095","Ukraine",2016,40,0,252,177.629061945,65.24833
"1096","Ukraine",2017,37,0,409,123.65980997,34.197735
"1097","Ukraine",2018,0,600,243,145.633760596,26.756458
"1098","Uruguay",2005,7,12,0,0.0509321,0.134085
"1099","Vanuatu",2004,2,54008,0,0.2214542,0.048
"1100","Vanuatu",2005,0,5000,0,0.00430027,0.045
"1101","Vanuatu",2014,12,20006,0,1.98674157,0.011273
"1102","Vanuatu",2015,11,188000,0,75.27837532,7.170319
"1103","Vanuatu",2016,0,351,0,7.19582536,0.272458
"1104","Vanuatu",2017,0,13564,0,13.6429594,0.522969
"1105","Vanuatu",2018,0,7286,0,9.813181309,1.346383
"1106","Venezuela",2002,4,55376,27,0.29270812,2.448719
"1107","Venezuela",2003,0,650,25,0.36290893,0.149392
"1108","Venezuela",2005,97,0,30,13.32754134,0.170627
"1109","Venezuela",2006,0,135,22,9.21509227,0.152432
"1110","Venezuela",2007,0,0,2,13.04018507,0.139919
"1111","Venezuela",2008,8,1500,0,2.27038563,0.059713
"1112","Venezuela",2011,0,0,1,4.48757717,0.096915
"1113","Venezuela",2018,0,10700,0,40.55796043,4.165638
"1114","Viet Nam",2000,0,5039580,0,0.6346559,5.216436
"1115","Viet Nam",2001,0,1809090,0,1.748798,1.098771
"1116","Viet Nam",2003,0,421849,0,4.594512464,0.320316
"1117","Viet Nam",2005,0,870136,0,1.80676228,0.72969
"1118","Viet Nam",2006,579,0,0,13.76744102,3.204819
"1119","Viet Nam",2007,353,0,0,6.755271557,1.011357
"1120","Viet Nam",2008,411,0,0,19.09582464,1.248641
"1121","Viet Nam",2010,221,1524433,0,26.78427498017,1.129725
"1122","Viet Nam",2012,72,356512,0,48.832660208,1.358026
"1123","Viet Nam",2013,215,0,0,8.79388546,0.661859
"1124","Viet Nam",2014,0,48075,0,18.39957436,0.277687
"1125","Viet Nam",2016,189,2503129,0,16.137163123,3.387902
"1126","Viet Nam",2017,284,5133216,0,27.04721702,1.525703
"1127","Viet Nam",2018,134,0,0,15.961031331,0.193554
"1128","West Bank and Gaza Strip",2010,0,500,0,247.89251635,265.855913
"1129","West Bank and Gaza Strip",2012,0,1500,0,226.937415195,191.014463
"1130","West Bank and Gaza Strip",2013,6,62571,0,471.96508748,165.654616
"1131","West Bank and Gaza Strip",2015,0,31050,0,373.661193111,206.709392
"1132","Yemen",2005,0,911,0,0.91448617,0.997929
"1133","Yemen",2007,99,0,0,5.70114633,1.351351
"1134","Yemen",2008,90,25064,21,10.039858416,106.130575
"1135","Yemen",2009,11,0,94,52.24774815,122.616644
"1136","Yemen",2010,22,0,201,82.04469945,104.507561
"1137","Yemen",2011,0,0,1285,158.00948708,178.100417
"1138","Yemen",2012,0,0,2345,161.523005524,170.54198
"1139","Yemen",2013,40,49092,582,354.61108044,217.375148
"1140","Yemen",2014,0,0,2120,200.285118171,263.566103
"1141","Yemen",2015,29,128091,7131,779.541828511,425.440899
"1142","Yemen",2016,51,29950,3856,828.99527036,614.59835
"1143","Yemen",2017,0,0,3123,896.113751829,1244.105108
"1144","Yemen",2018,49,15874,4837,1923.23547722,3341.74375
"1145","Zambia",2003,0,14835,0,5.95380963,3.91519
"1146","Zambia",2005,0,1211615,0,9.43619808,0.413676
"1147","Zambia",2006,5,105,0,5.8584913,9.492804
"1148","Zambia",2007,0,1553636,0,11.773420062,0.270003
"1149","Zambia",2008,177,23312,0,13.071097313,6.381924
"1150","Zambia",2009,118,620012,0,11.317204392,1.129061
"1151","Zambia",2014,0,20000,0,6.1433926,2.346007
"1152","Zambia",2017,89,4371,0,10.132999702,1.803
"1153","Zimbabwe",2000,182,268812,0,4.0763879,2.645617
"1154","Zimbabwe",2001,0,6030000,0,0.1585168,0.046864
"1155","Zimbabwe",2002,0,452,0,6.27287051,132.969743
"1156","Zimbabwe",2003,50,0,0,8.9399623,16.877398
"1157","Zimbabwe",2005,87,1183,0,32.99073366,27.605458
"1158","Zimbabwe",2008,4276,98349,253,133.333565551,239.851854
"1159","Zimbabwe",2009,55,1346,0,159.521747568,211.972756
"1160","Zimbabwe",2010,0,1668696,0,83.900639994,113.649827
"1161","Zimbabwe",2011,0,0,1,71.648887895,90.698478
"1162","Zimbabwe",2012,0,0,1,67.13987347,96.929192
"1163","Zimbabwe",2013,0,4309700,0,102.61272635,61.386004
"1164","Zimbabwe",2014,0,2513,0,29.77526202,3.541165
"1165","Zimbabwe",2015,10,475,0,38.1880225,3.664411
"1166","Zimbabwe",2016,31,2000,0,127.59951989,61.777024
"1167","Zimbabwe",2017,251,113023,0,61.74774228,6.180892
"1168","Zimbabwe",2018,12,5164,4,70.601389819,30.295692
